mesures/ess 10 bear volt.csv

Model,MSO44B
Label,
Waveform Type,ANALOG
Horizontal Units,s
Sample Interval,1.60000000e-10
Record Length,125000
Zero Index,62499.00000000
Vertical Units,V
ANALOG_Thumbnail,
yOffset,0.00000000e+00
yPosition,-7.80000000e-01

Labels,
TIME,CH2
-9.99984000e-06,-2.80000000e-01
-9.99968000e-06,-2.80000000e-01
-9.99952000e-06,-2.80000000e-01
-9.99936000e-06,-2.80000000e-01
-9.99920000e-06,-2.80000000e-01
-9.99904000e-06,-2.80000000e-01
-9.99888000e-06,-2.80000000e-01
-9.99872000e-06,-2.80000000e-01
-9.99856000e-06,-2.80000000e-01
-9.99840000e-06,-2.80000000e-01
-9.99824000e-06,-2.80000000e-01
-9.99808000e-06,-2.80000000e-01
-9.99792000e-06,-2.80000000e-01
-9.99776000e-06,-2.80000000e-01
-9.99760000e-06,-2.80000000e-01
-9.99744000e-06,-2.80000000e-01
-9.99728000e-06,-2.80000000e-01
-9.99712000e-06,-2.80000000e-01
-9.99696000e-06,-2.80000000e-01
-9.99680000e-06,-2.80000000e-01
-9.99664000e-06,-2.80000000e-01
-9.99648000e-06,-2.80000000e-01
-9.99632000e-06,-2.80000000e-01
-9.99616000e-06,-2.80000000e-01
-9.99600000e-06,-2.80000000e-01
-9.99584000e-06,-3.60000000e-01
-9.99568000e-06,-3.60000000e-01
-9.99552000e-06,-3.60000000e-01
-9.99536000e-06,-3.60000000e-01
-9.99520000e-06,-3.60000000e-01
-9.99504000e-06,-2.80000000e-01
-9.99488000e-06,-2.80000000e-01
-9.99472000e-06,-2.80000000e-01
-9.99456000e-06,-2.80000000e-01
-9.99440000e-06,-2.80000000e-01
-9.99424000e-06,-2.80000000e-01
-9.99408000e-06,-2.80000000e-01
-9.99392000e-06,-2.80000000e-01
-9.99376000e-06,-2.80000000e-01
-9.99360000e-06,-2.80000000e-01
-9.99344000e-06,-2.80000000e-01
-9.99328000e-06,-2.80000000e-01
-9.99312000e-06,-2.80000000e-01
-9.99296000e-06,-2.80000000e-01
-9.99280000e-06,-2.80000000e-01
-9.99264000e-06,-2.80000000e-01
-9.99248000e-06,-2.80000000e-01
-9.99232000e-06,-2.80000000e-01
-9.99216000e-06,-2.80000000e-01
-9.99200000e-06,-2.80000000e-01
-9.99184000e-06,-2.80000000e-01
-9.99168000e-06,-2.80000000e-01
-9.99152000e-06,-2.80000000e-01
-9.99136000e-06,-2.80000000e-01
-9.99120000e-06,-3.60000000e-01
-9.99104000e-06,-3.60000000e-01
-9.99088000e-06,-3.60000000e-01
-9.99072000e-06,-3.60000000e-01
-9.99056000e-06,-3.60000000e-01
-9.99040000e-06,-3.60000000e-01
-9.99024000e-06,-3.60000000e-01
-9.99008000e-06,-2.80000000e-01
-9.98992000e-06,-2.80000000e-01
-9.98976000e-06,-2.80000000e-01
-9.98960000e-06,-2.80000000e-01
-9.98944000e-06,-2.80000000e-01
-9.98928000e-06,-2.80000000e-01
-9.98912000e-06,-2.80000000e-01
-9.98896000e-06,-2.80000000e-01
-9.98880000e-06,-2.80000000e-01
-9.98864000e-06,-2.80000000e-01
-9.98848000e-06,-2.80000000e-01
-9.98832000e-06,-2.80000000e-01
-9.98816000e-06,-2.80000000e-01
-9.98800000e-06,-2.80000000e-01
-9.98784000e-06,-2.80000000e-01
-9.98768000e-06,-2.80000000e-01
-9.98752000e-06,-2.80000000e-01
-9.98736000e-06,-2.80000000e-01
-9.98720000e-06,-2.00000000e-01
-9.98704000e-06,-2.00000000e-01
-9.98688000e-06,-2.00000000e-01
-9.98672000e-06,-2.00000000e-01
-9.98656000e-06,-2.00000000e-01
-9.98640000e-06,-2.00000000e-01
-9.98624000e-06,-2.00000000e-01
-9.98608000e-06,-2.00000000e-01
-9.98592000e-06,-2.00000000e-01
-9.98576000e-06,-2.00000000e-01
-9.98560000e-06,-2.00000000e-01
-9.98544000e-06,-1.20000000e-01
-9.98528000e-06,-1.20000000e-01
-9.98512000e-06,-1.20000000e-01
-9.98496000e-06,-1.20000000e-01
-9.98480000e-06,-1.20000000e-01
-9.98464000e-06,-1.20000000e-01
-9.98448000e-06,-1.20000000e-01
-9.98432000e-06,-1.20000000e-01
-9.98416000e-06,-1.20000000e-01
-9.98400000e-06,-1.20000000e-01
-9.98384000e-06,-1.20000000e-01
-9.98368000e-06,-1.20000000e-01
-9.98352000e-06,-4.00000000e-02
-9.98336000e-06,-4.00000000e-02
-9.98320000e-06,-4.00000000e-02
-9.98304000e-06,-4.00000000e-02
-9.98288000e-06,-4.00000000e-02
-9.98272000e-06,-4.00000000e-02
-9.98256000e-06,-4.00000000e-02
-9.98240000e-06,4.00000000e-02
-9.98224000e-06,4.00000000e-02
-9.98208000e-06,4.00000000e-02
-9.98192000e-06,4.00000000e-02
-9.98176000e-06,4.00000000e-02
-9.98160000e-06,4.00000000e-02
-9.98144000e-06,4.00000000e-02
-9.98128000e-06,4.00000000e-02
-9.98112000e-06,4.00000000e-02
-9.98096000e-06,4.00000000e-02
-9.98080000e-06,4.00000000e-02
-9.98064000e-06,4.00000000e-02
-9.98048000e-06,1.20000000e-01
-9.98032000e-06,1.20000000e-01
-9.98016000e-06,1.20000000e-01
-9.98000000e-06,1.20000000e-01
-9.97984000e-06,2.00000000e-01
-9.97968000e-06,2.00000000e-01
-9.97952000e-06,2.00000000e-01
-9.97936000e-06,2.00000000e-01
-9.97920000e-06,2.00000000e-01
-9.97904000e-06,2.00000000e-01
-9.97888000e-06,2.80000000e-01
-9.97872000e-06,2.80000000e-01
-9.97856000e-06,2.80000000e-01
-9.97840000e-06,2.80000000e-01
-9.97824000e-06,2.80000000e-01
-9.97808000e-06,2.80000000e-01
-9.97792000e-06,2.80000000e-01
-9.97776000e-06,3.60000000e-01
-9.97760000e-06,3.60000000e-01
-9.97744000e-06,3.60000000e-01
-9.97728000e-06,3.60000000e-01
-9.97712000e-06,3.60000000e-01
-9.97696000e-06,3.60000000e-01
-9.97680000e-06,3.60000000e-01
-9.97664000e-06,3.60000000e-01
-9.97648000e-06,4.40000000e-01
-9.97632000e-06,4.40000000e-01
-9.97616000e-06,4.40000000e-01
-9.97600000e-06,4.40000000e-01
-9.97584000e-06,4.40000000e-01
-9.97568000e-06,4.40000000e-01
-9.97552000e-06,4.40000000e-01
-9.97536000e-06,5.20000000e-01
-9.97520000e-06,5.20000000e-01
-9.97504000e-06,5.20000000e-01
-9.97488000e-06,5.20000000e-01
-9.97472000e-06,5.20000000e-01
-9.97456000e-06,5.20000000e-01
-9.97440000e-06,5.20000000e-01
-9.97424000e-06,5.20000000e-01
-9.97408000e-06,6.00000000e-01
-9.97392000e-06,6.00000000e-01
-9.97376000e-06,6.00000000e-01
-9.97360000e-06,6.00000000e-01
-9.97344000e-06,6.00000000e-01
-9.97328000e-06,6.00000000e-01
-9.97312000e-06,6.00000000e-01
-9.97296000e-06,6.00000000e-01
-9.97280000e-06,6.80000000e-01
-9.97264000e-06,6.80000000e-01
-9.97248000e-06,6.80000000e-01
-9.97232000e-06,6.80000000e-01
-9.97216000e-06,6.80000000e-01
-9.97200000e-06,6.80000000e-01
-9.97184000e-06,6.80000000e-01
-9.97168000e-06,6.80000000e-01
-9.97152000e-06,6.80000000e-01
-9.97136000e-06,6.80000000e-01
-9.97120000e-06,6.80000000e-01
-9.97104000e-06,6.80000000e-01
-9.97088000e-06,6.80000000e-01
-9.97072000e-06,6.80000000e-01
-9.97056000e-06,6.80000000e-01
-9.97040000e-06,6.80000000e-01
-9.97024000e-06,6.80000000e-01
-9.97008000e-06,6.80000000e-01
-9.96992000e-06,6.80000000e-01
-9.96976000e-06,6.80000000e-01
-9.96960000e-06,6.80000000e-01
-9.96944000e-06,6.80000000e-01
-9.96928000e-06,6.80000000e-01
-9.96912000e-06,6.80000000e-01
-9.96896000e-06,6.80000000e-01
-9.96880000e-06,7.60000000e-01
-9.96864000e-06,7.60000000e-01
-9.96848000e-06,7.60000000e-01
-9.96832000e-06,7.60000000e-01
-9.96816000e-06,7.60000000e-01
-9.96800000e-06,7.60000000e-01
-9.96784000e-06,7.60000000e-01
-9.96768000e-06,7.60000000e-01
-9.96752000e-06,7.60000000e-01
-9.96736000e-06,7.60000000e-01
-9.96720000e-06,7.60000000e-01
-9.96704000e-06,7.60000000e-01
-9.96688000e-06,7.60000000e-01
-9.96672000e-06,7.60000000e-01
-9.96656000e-06,7.60000000e-01
-9.96640000e-06,7.60000000e-01
-9.96624000e-06,7.60000000e-01
-9.96608000e-06,7.60000000e-01
-9.96592000e-06,7.60000000e-01
-9.96576000e-06,7.60000000e-01
-9.96560000e-06,7.60000000e-01
-9.96544000e-06,7.60000000e-01
-9.96528000e-06,7.60000000e-01
-9.96512000e-06,7.60000000e-01
-9.96496000e-06,7.60000000e-01
-9.96480000e-06,7.60000000e-01
-9.96464000e-06,7.60000000e-01
-9.96448000e-06,7.60000000e-01
-9.96432000e-06,7.60000000e-01
-9.96416000e-06,7.60000000e-01
-9.96400000e-06,7.60000000e-01
-9.96384000e-06,7.60000000e-01
-9.96368000e-06,7.60000000e-01
-9.96352000e-06,7.60000000e-01
-9.96336000e-06,6.80000000e-01
-9.96320000e-06,6.80000000e-01
-9.96304000e-06,6.80000000e-01
-9.96288000e-06,6.80000000e-01
-9.96272000e-06,6.80000000e-01
-9.96256000e-06,6.80000000e-01
-9.96240000e-06,6.80000000e-01
-9.96224000e-06,6.80000000e-01
-9.96208000e-06,6.80000000e-01
-9.96192000e-06,6.80000000e-01
-9.96176000e-06,6.80000000e-01
-9.96160000e-06,6.80000000e-01
-9.96144000e-06,6.80000000e-01
-9.96128000e-06,6.80000000e-01
-9.96112000e-06,6.80000000e-01
-9.96096000e-06,6.80000000e-01
-9.96080000e-06,6.80000000e-01
-9.96064000e-06,6.80000000e-01
-9.96048000e-06,6.00000000e-01
-9.96032000e-06,6.00000000e-01
-9.96016000e-06,6.00000000e-01
-9.96000000e-06,6.00000000e-01
-9.95984000e-06,6.00000000e-01
-9.95968000e-06,6.00000000e-01
-9.95952000e-06,6.00000000e-01
-9.95936000e-06,6.00000000e-01
-9.95920000e-06,6.00000000e-01
-9.95904000e-06,6.00000000e-01
-9.95888000e-06,6.00000000e-01
-9.95872000e-06,6.00000000e-01
-9.95856000e-06,6.00000000e-01
-9.95840000e-06,6.00000000e-01
-9.95824000e-06,6.00000000e-01
-9.95808000e-06,6.00000000e-01
-9.95792000e-06,6.00000000e-01
-9.95776000e-06,6.00000000e-01
-9.95760000e-06,6.00000000e-01
-9.95744000e-06,5.20000000e-01
-9.95728000e-06,5.20000000e-01
-9.95712000e-06,5.20000000e-01
-9.95696000e-06,5.20000000e-01
-9.95680000e-06,5.20000000e-01
-9.95664000e-06,5.20000000e-01
-9.95648000e-06,6.00000000e-01
-9.95632000e-06,6.00000000e-01
-9.95616000e-06,6.00000000e-01
-9.95600000e-06,6.00000000e-01
-9.95584000e-06,5.20000000e-01
-9.95568000e-06,5.20000000e-01
-9.95552000e-06,5.20000000e-01
-9.95536000e-06,5.20000000e-01
-9.95520000e-06,5.20000000e-01
-9.95504000e-06,5.20000000e-01
-9.95488000e-06,5.20000000e-01
-9.95472000e-06,5.20000000e-01
-9.95456000e-06,5.20000000e-01
-9.95440000e-06,5.20000000e-01
-9.95424000e-06,5.20000000e-01
-9.95408000e-06,5.20000000e-01
-9.95392000e-06,5.20000000e-01
-9.95376000e-06,5.20000000e-01
-9.95360000e-06,5.20000000e-01
-9.95344000e-06,5.20000000e-01
-9.95328000e-06,5.20000000e-01
-9.95312000e-06,6.00000000e-01
-9.95296000e-06,6.00000000e-01
-9.95280000e-06,6.00000000e-01
-9.95264000e-06,6.00000000e-01
-9.95248000e-06,5.20000000e-01
-9.95232000e-06,5.20000000e-01
-9.95216000e-06,5.20000000e-01
-9.95200000e-06,5.20000000e-01
-9.95184000e-06,5.20000000e-01
-9.95168000e-06,6.00000000e-01
-9.95152000e-06,6.00000000e-01
-9.95136000e-06,6.00000000e-01
-9.95120000e-06,6.00000000e-01
-9.95104000e-06,6.00000000e-01
-9.95088000e-06,6.00000000e-01
-9.95072000e-06,6.00000000e-01
-9.95056000e-06,5.20000000e-01
-9.95040000e-06,5.20000000e-01
-9.95024000e-06,5.20000000e-01
-9.95008000e-06,5.20000000e-01
-9.94992000e-06,5.20000000e-01
-9.94976000e-06,5.20000000e-01
-9.94960000e-06,5.20000000e-01
-9.94944000e-06,6.00000000e-01
-9.94928000e-06,6.00000000e-01
-9.94912000e-06,6.00000000e-01
-9.94896000e-06,6.00000000e-01
-9.94880000e-06,6.00000000e-01
-9.94864000e-06,6.00000000e-01
-9.94848000e-06,6.00000000e-01
-9.94832000e-06,6.00000000e-01
-9.94816000e-06,6.00000000e-01
-9.94800000e-06,6.00000000e-01
-9.94784000e-06,6.00000000e-01
-9.94768000e-06,6.00000000e-01
-9.94752000e-06,6.00000000e-01
-9.94736000e-06,6.00000000e-01
-9.94720000e-06,6.80000000e-01
-9.94704000e-06,6.80000000e-01
-9.94688000e-06,6.80000000e-01
-9.94672000e-06,6.80000000e-01
-9.94656000e-06,6.80000000e-01
-9.94640000e-06,6.80000000e-01
-9.94624000e-06,6.80000000e-01
-9.94608000e-06,6.80000000e-01
-9.94592000e-06,6.80000000e-01
-9.94576000e-06,6.80000000e-01
-9.94560000e-06,6.80000000e-01
-9.94544000e-06,6.80000000e-01
-9.94528000e-06,6.80000000e-01
-9.94512000e-06,6.80000000e-01
-9.94496000e-06,6.80000000e-01
-9.94480000e-06,6.80000000e-01
-9.94464000e-06,7.60000000e-01
-9.94448000e-06,7.60000000e-01
-9.94432000e-06,7.60000000e-01
-9.94416000e-06,7.60000000e-01
-9.94400000e-06,7.60000000e-01
-9.94384000e-06,7.60000000e-01
-9.94368000e-06,7.60000000e-01
-9.94352000e-06,7.60000000e-01
-9.94336000e-06,7.60000000e-01
-9.94320000e-06,7.60000000e-01
-9.94304000e-06,7.60000000e-01
-9.94288000e-06,7.60000000e-01
-9.94272000e-06,7.60000000e-01
-9.94256000e-06,7.60000000e-01
-9.94240000e-06,7.60000000e-01
-9.94224000e-06,7.60000000e-01
-9.94208000e-06,7.60000000e-01
-9.94192000e-06,7.60000000e-01
-9.94176000e-06,7.60000000e-01
-9.94160000e-06,7.60000000e-01
-9.94144000e-06,7.60000000e-01
-9.94128000e-06,8.40000000e-01
-9.94112000e-06,8.40000000e-01
-9.94096000e-06,8.40000000e-01
-9.94080000e-06,8.40000000e-01
-9.94064000e-06,8.40000000e-01
-9.94048000e-06,8.40000000e-01
-9.94032000e-06,8.40000000e-01
-9.94016000e-06,8.40000000e-01
-9.94000000e-06,8.40000000e-01
-9.93984000e-06,8.40000000e-01
-9.93968000e-06,8.40000000e-01
-9.93952000e-06,8.40000000e-01
-9.93936000e-06,8.40000000e-01
-9.93920000e-06,8.40000000e-01
-9.93904000e-06,8.40000000e-01
-9.93888000e-06,8.40000000e-01
-9.93872000e-06,8.40000000e-01
-9.93856000e-06,8.40000000e-01
-9.93840000e-06,8.40000000e-01
-9.93824000e-06,8.40000000e-01
-9.93808000e-06,8.40000000e-01
-9.93792000e-06,8.40000000e-01
-9.93776000e-06,8.40000000e-01
-9.93760000e-06,8.40000000e-01
-9.93744000e-06,8.40000000e-01
-9.93728000e-06,8.40000000e-01
-9.93712000e-06,8.40000000e-01
-9.93696000e-06,8.40000000e-01
-9.93680000e-06,8.40000000e-01
-9.93664000e-06,8.40000000e-01
-9.93648000e-06,8.40000000e-01
-9.93632000e-06,8.40000000e-01
-9.93616000e-06,8.40000000e-01
-9.93600000e-06,8.40000000e-01
-9.93584000e-06,8.40000000e-01
-9.93568000e-06,8.40000000e-01
-9.93552000e-06,8.40000000e-01
-9.93536000e-06,8.40000000e-01
-9.93520000e-06,8.40000000e-01
-9.93504000e-06,8.40000000e-01
-9.93488000e-06,8.40000000e-01
-9.93472000e-06,8.40000000e-01
-9.93456000e-06,8.40000000e-01
-9.93440000e-06,8.40000000e-01
-9.93424000e-06,7.60000000e-01
-9.93408000e-06,7.60000000e-01
-9.93392000e-06,7.60000000e-01
-9.93376000e-06,7.60000000e-01
-9.93360000e-06,7.60000000e-01
-9.93344000e-06,7.60000000e-01
-9.93328000e-06,7.60000000e-01
-9.93312000e-06,7.60000000e-01
-9.93296000e-06,7.60000000e-01
-9.93280000e-06,7.60000000e-01
-9.93264000e-06,7.60000000e-01
-9.93248000e-06,7.60000000e-01
-9.93232000e-06,6.80000000e-01
-9.93216000e-06,6.80000000e-01
-9.93200000e-06,6.80000000e-01
-9.93184000e-06,6.80000000e-01
-9.93168000e-06,6.80000000e-01
-9.93152000e-06,6.80000000e-01
-9.93136000e-06,6.80000000e-01
-9.93120000e-06,6.80000000e-01
-9.93104000e-06,6.80000000e-01
-9.93088000e-06,6.80000000e-01
-9.93072000e-06,6.80000000e-01
-9.93056000e-06,6.80000000e-01
-9.93040000e-06,6.80000000e-01
-9.93024000e-06,6.00000000e-01
-9.93008000e-06,6.00000000e-01
-9.92992000e-06,6.00000000e-01
-9.92976000e-06,6.00000000e-01
-9.92960000e-06,6.00000000e-01
-9.92944000e-06,6.00000000e-01
-9.92928000e-06,5.20000000e-01
-9.92912000e-06,5.20000000e-01
-9.92896000e-06,5.20000000e-01
-9.92880000e-06,5.20000000e-01
-9.92864000e-06,5.20000000e-01
-9.92848000e-06,5.20000000e-01
-9.92832000e-06,5.20000000e-01
-9.92816000e-06,5.20000000e-01
-9.92800000e-06,5.20000000e-01
-9.92784000e-06,5.20000000e-01
-9.92768000e-06,5.20000000e-01
-9.92752000e-06,5.20000000e-01
-9.92736000e-06,5.20000000e-01
-9.92720000e-06,4.40000000e-01
-9.92704000e-06,4.40000000e-01
-9.92688000e-06,4.40000000e-01
-9.92672000e-06,4.40000000e-01
-9.92656000e-06,4.40000000e-01
-9.92640000e-06,3.60000000e-01
-9.92624000e-06,3.60000000e-01
-9.92608000e-06,3.60000000e-01
-9.92592000e-06,3.60000000e-01
-9.92576000e-06,3.60000000e-01
-9.92560000e-06,3.60000000e-01
-9.92544000e-06,3.60000000e-01
-9.92528000e-06,3.60000000e-01
-9.92512000e-06,3.60000000e-01
-9.92496000e-06,2.80000000e-01
-9.92480000e-06,2.80000000e-01
-9.92464000e-06,2.80000000e-01
-9.92448000e-06,2.80000000e-01
-9.92432000e-06,2.80000000e-01
-9.92416000e-06,2.80000000e-01
-9.92400000e-06,2.00000000e-01
-9.92384000e-06,2.00000000e-01
-9.92368000e-06,2.00000000e-01
-9.92352000e-06,2.00000000e-01
-9.92336000e-06,2.00000000e-01
-9.92320000e-06,2.00000000e-01
-9.92304000e-06,2.00000000e-01
-9.92288000e-06,2.00000000e-01
-9.92272000e-06,2.00000000e-01
-9.92256000e-06,1.20000000e-01
-9.92240000e-06,1.20000000e-01
-9.92224000e-06,1.20000000e-01
-9.92208000e-06,1.20000000e-01
-9.92192000e-06,1.20000000e-01
-9.92176000e-06,4.00000000e-02
-9.92160000e-06,4.00000000e-02
-9.92144000e-06,4.00000000e-02
-9.92128000e-06,4.00000000e-02
-9.92112000e-06,4.00000000e-02
-9.92096000e-06,4.00000000e-02
-9.92080000e-06,4.00000000e-02
-9.92064000e-06,4.00000000e-02
-9.92048000e-06,4.00000000e-02
-9.92032000e-06,4.00000000e-02
-9.92016000e-06,4.00000000e-02
-9.92000000e-06,4.00000000e-02
-9.91984000e-06,-4.00000000e-02
-9.91968000e-06,-4.00000000e-02
-9.91952000e-06,-4.00000000e-02
-9.91936000e-06,-4.00000000e-02
-9.91920000e-06,-4.00000000e-02
-9.91904000e-06,-4.00000000e-02
-9.91888000e-06,-4.00000000e-02
-9.91872000e-06,-4.00000000e-02
-9.91856000e-06,-4.00000000e-02
-9.91840000e-06,-4.00000000e-02
-9.91824000e-06,-1.20000000e-01
-9.91808000e-06,-1.20000000e-01
-9.91792000e-06,-1.20000000e-01
-9.91776000e-06,-1.20000000e-01
-9.91760000e-06,-1.20000000e-01
-9.91744000e-06,-1.20000000e-01
-9.91728000e-06,-1.20000000e-01
-9.91712000e-06,-1.20000000e-01
-9.91696000e-06,-1.20000000e-01
-9.91680000e-06,-1.20000000e-01
-9.91664000e-06,-1.20000000e-01
-9.91648000e-06,-1.20000000e-01
-9.91632000e-06,-1.20000000e-01
-9.91616000e-06,-2.00000000e-01
-9.91600000e-06,-2.00000000e-01
-9.91584000e-06,-2.00000000e-01
-9.91568000e-06,-1.20000000e-01
-9.91552000e-06,-1.20000000e-01
-9.91536000e-06,-1.20000000e-01
-9.91520000e-06,-1.20000000e-01
-9.91504000e-06,-1.20000000e-01
-9.91488000e-06,-1.20000000e-01
-9.91472000e-06,-1.20000000e-01
-9.91456000e-06,-1.20000000e-01
-9.91440000e-06,-1.20000000e-01
-9.91424000e-06,-1.20000000e-01
-9.91408000e-06,-1.20000000e-01
-9.91392000e-06,-1.20000000e-01
-9.91376000e-06,-1.20000000e-01
-9.91360000e-06,-2.00000000e-01
-9.91344000e-06,-2.00000000e-01
-9.91328000e-06,-2.00000000e-01
-9.91312000e-06,-2.00000000e-01
-9.91296000e-06,-2.00000000e-01
-9.91280000e-06,-2.00000000e-01
-9.91264000e-06,-1.20000000e-01
-9.91248000e-06,-1.20000000e-01
-9.91232000e-06,-1.20000000e-01
-9.91216000e-06,-1.20000000e-01
-9.91200000e-06,-1.20000000e-01
-9.91184000e-06,-1.20000000e-01
-9.91168000e-06,-1.20000000e-01
-9.91152000e-06,-1.20000000e-01
-9.91136000e-06,-2.00000000e-01
-9.91120000e-06,-2.00000000e-01
-9.91104000e-06,-2.00000000e-01
-9.91088000e-06,-2.00000000e-01
-9.91072000e-06,-2.00000000e-01
-9.91056000e-06,-1.20000000e-01
-9.91040000e-06,-1.20000000e-01
-9.91024000e-06,-1.20000000e-01
-9.91008000e-06,-1.20000000e-01
-9.90992000e-06,-1.20000000e-01
-9.90976000e-06,-1.20000000e-01
-9.90960000e-06,-1.20000000e-01
-9.90944000e-06,-1.20000000e-01
-9.90928000e-06,-1.20000000e-01
-9.90912000e-06,-1.20000000e-01
-9.90896000e-06,-1.20000000e-01
-9.90880000e-06,-1.20000000e-01
-9.90864000e-06,-2.00000000e-01
-9.90848000e-06,-2.00000000e-01
-9.90832000e-06,-2.00000000e-01
-9.90816000e-06,-1.20000000e-01
-9.90800000e-06,-1.20000000e-01
-9.90784000e-06,-1.20000000e-01
-9.90768000e-06,-1.20000000e-01
-9.90752000e-06,-1.20000000e-01
-9.90736000e-06,-1.20000000e-01
-9.90720000e-06,-1.20000000e-01
-9.90704000e-06,-1.20000000e-01
-9.90688000e-06,-1.20000000e-01
-9.90672000e-06,-1.20000000e-01
-9.90656000e-06,-4.00000000e-02
-9.90640000e-06,-4.00000000e-02
-9.90624000e-06,-4.00000000e-02
-9.90608000e-06,-1.20000000e-01
-9.90592000e-06,-1.20000000e-01
-9.90576000e-06,-1.20000000e-01
-9.90560000e-06,-1.20000000e-01
-9.90544000e-06,-1.20000000e-01
-9.90528000e-06,-1.20000000e-01
-9.90512000e-06,-1.20000000e-01
-9.90496000e-06,-1.20000000e-01
-9.90480000e-06,-1.20000000e-01
-9.90464000e-06,-1.20000000e-01
-9.90448000e-06,-1.20000000e-01
-9.90432000e-06,-1.20000000e-01
-9.90416000e-06,-1.20000000e-01
-9.90400000e-06,-1.20000000e-01
-9.90384000e-06,-1.20000000e-01
-9.90368000e-06,-1.20000000e-01
-9.90352000e-06,-1.20000000e-01
-9.90336000e-06,-1.20000000e-01
-9.90320000e-06,-1.20000000e-01
-9.90304000e-06,-1.20000000e-01
-9.90288000e-06,-1.20000000e-01
-9.90272000e-06,-1.20000000e-01
-9.90256000e-06,-1.20000000e-01
-9.90240000e-06,-4.00000000e-02
-9.90224000e-06,-4.00000000e-02
-9.90208000e-06,-4.00000000e-02
-9.90192000e-06,-4.00000000e-02
-9.90176000e-06,-4.00000000e-02
-9.90160000e-06,-1.20000000e-01
-9.90144000e-06,-1.20000000e-01
-9.90128000e-06,-1.20000000e-01
-9.90112000e-06,-4.00000000e-02
-9.90096000e-06,-4.00000000e-02
-9.90080000e-06,-4.00000000e-02
-9.90064000e-06,-4.00000000e-02
-9.90048000e-06,-4.00000000e-02
-9.90032000e-06,-1.20000000e-01
-9.90016000e-06,-1.20000000e-01
-9.90000000e-06,-1.20000000e-01
-9.89984000e-06,-1.20000000e-01
-9.89968000e-06,-1.20000000e-01
-9.89952000e-06,-1.20000000e-01
-9.89936000e-06,-1.20000000e-01
